{
    "elements": {},
    "attributes": {
        "th:objectth:action": {},
        "th:text": {},
        "th:if": {},
        "th:object": {},
        "th:unless": {},
        "th:action": {},
        "th:each": {},
        "th:href": {}
    }
}